[
    {
      "settingName":"A-Junioren (U 19/U 18)", 
      "periodSettingId":1,  
      "durationMin":45,
      "periodAmounts":2
    },    
    {
    "settingName":"B-Junioren/ Juniorinnen (U 17/U 16)", 
    "periodSettingId":2,
    "durationMin":40,
    "periodAmounts":2
  },
  {
    "settingName":"C-Junioren/ Juniorinnen (U 15/U 14)", 
    "periodSettingId":3,
    "durationMin":35,
    "periodAmounts":2
  },
  {
    "settingName":"D-Junioren/ Juniorinnen (U 13/U 12)",  
    "periodSettingId":4,
    "durationMin":30,
    "periodAmounts":2
  },
  {
    "settingName":"E-Junioren/ Juniorinnen (U 11/U 10)",  
    "periodSettingId":5,
    "durationMin":25,
    "periodAmounts":2
  },
  {
    "settingName":"F-Junioren/ Juniorinnen (U 9/U 8)",  
    "periodSettingId":6,
    "durationMin":20,
    "periodAmounts":2
  },
  {
    "settingName":"G-Junioren/ Juniorinnen (Bambinis) (U 7)",  
    "periodSettingId":7,
    "durationMin":20,
    "periodAmounts":2
  }
]