 [
  {
    "settingName":"Rückwärts",
    "periodSettingId":1,
    "durationMin":15,
    "periodAmounts":4,
	"timerDirection":2
  },
   {
    "settingName":"Vorwärts",
    "periodSettingId":2,
    "durationMin":15,
    "periodAmounts":4,
	"timerDirection":1
  }
 ]